<?xml version="1.0" encoding="UTF-8" standalone="no"?>
<!-- Created with Inkscape (http://www.inkscape.org/) -->

<svg
   xmlns:dc="http://purl.org/dc/elements/1.1/"
   xmlns:cc="http://creativecommons.org/ns#"
   xmlns:rdf="http://www.w3.org/1999/02/22-rdf-syntax-ns#"
   xmlns:svg="http://www.w3.org/2000/svg"
   xmlns="http://www.w3.org/2000/svg"
   xmlns:sodipodi="http://sodipodi.sourceforge.net/DTD/sodipodi-0.dtd"
   xmlns:inkscape="http://www.inkscape.org/namespaces/inkscape"
   width="256px"
   height="256px"
   viewBox="0 0 256 256"
   version="1.1"
   id="SVGRoot"
   inkscape:export-filename="C:\Users\jasiekmarc\Documents\Programowanie\SlubApp\src\assets\icon\icon-512.png"
   inkscape:export-xdpi="192.00002"
   inkscape:export-ydpi="192.00002"
   inkscape:version="0.92.1 r15371"
   sodipodi:docname="icon.svg">
  <sodipodi:namedview
     id="base"
     pagecolor="#ffffff"
     bordercolor="#666666"
     borderopacity="1.0"
     inkscape:pageopacity="0.0"
     inkscape:pageshadow="2"
     inkscape:zoom="3.8946116"
     inkscape:cx="174.05174"
     inkscape:cy="59.844157"
     inkscape:document-units="px"
     inkscape:current-layer="layer1"
     showgrid="true"
     inkscape:window-width="3200"
     inkscape:window-height="1690"
     inkscape:window-x="-12"
     inkscape:window-y="-12"
     inkscape:window-maximized="1"
     inkscape:grid-bbox="true"
     inkscape:snap-page="false"
     inkscape:snap-grids="false"
     inkscape:snap-to-guides="false"
     inkscape:snap-others="false"
     inkscape:snap-global="false">
    <inkscape:grid
       type="xygrid"
       id="grid5703" />
  </sodipodi:namedview>
  <defs
     id="defs5078" />
  <metadata
     id="metadata5081">
    <rdf:RDF>
      <cc:Work
         rdf:about="">
        <dc:format>image/svg+xml</dc:format>
        <dc:type
           rdf:resource="http://purl.org/dc/dcmitype/StillImage" />
        <dc:title></dc:title>
      </cc:Work>
    </rdf:RDF>
  </metadata>
  <g
     inkscape:groupmode="layer"
     id="layer2"
     inkscape:label="Tło"
     style="display:inline">
    <rect
       style="opacity:0.97600002;fill:#263238;fill-opacity:1;fill-rule:evenodd;stroke-width:63.09749603;stroke-linejoin:round;stroke-miterlimit:4;stroke-dasharray:none;paint-order:markers fill stroke"
       id="rect7253"
       width="256"
       height="256"
       x="0"
       y="0"
       ry="17.55611" />
  </g>
  <g
     id="layer1"
     inkscape:groupmode="layer"
     inkscape:label="Cień"
     style="display:inline">
    <path
       sodipodi:nodetypes="ccc"
       id="path5705"
       style="fill:#000ff0;fill-opacity:0;stroke:#546e7a;stroke-width:0.72387129;stroke-linecap:round;stroke-linejoin:round;stroke-dasharray:none;stroke-opacity:1"
       d="M 108.87921,147.15284 160.66675,79.307146 228.5834,202.18322"
       inkscape:connector-curvature="0" />
    <path
       inkscape:connector-curvature="0"
       id="path5707"
       style="fill:#000ff0;fill-opacity:0;fill-rule:evenodd;stroke:#546e7a;stroke-width:0.72387129;stroke-linecap:round;stroke-linejoin:round;stroke-dasharray:none;stroke-opacity:1"
       d="m 122.05616,112.71093 38.20361,-52.1971 71.6315,139.44571" />
    <path
       id="path5709"
       style="fill:#000ff0;fill-opacity:0;stroke:#546e7a;stroke-width:0.72387129;stroke-linecap:round;stroke-linejoin:round;stroke-dasharray:none;stroke-opacity:1"
       d="M 34.951067,206.27678 67.338731,62.743508 122.48963,119.0169"
       inkscape:connector-curvature="0" />
    <path
       id="path5711"
       style="fill:#000ff0;fill-opacity:0;stroke:#546e7a;stroke-width:0.72387129;stroke-linecap:round;stroke-linejoin:round;stroke-dasharray:none;stroke-opacity:1"
       d="M 31.106558,205.10305 65.130651,54.472057 122.05616,112.71093"
       inkscape:connector-curvature="0" />
    <path
       sodipodi:nodetypes="cccc"
       id="path5713"
       style="fill:#546e7a;fill-opacity:1;fill-rule:evenodd;stroke:#546e7a;stroke-width:0.44637513;stroke-linecap:round;stroke-linejoin:round;stroke-dasharray:none;stroke-opacity:1"
       d="m 55.188427,117.18647 17.864596,-10.00624 18.793585,9.06587 9.818882,-18.379647"
       inkscape:connector-curvature="0" />
    <path
       id="path5715"
       style="fill:#000ff0;fill-opacity:0;stroke:#546e7a;stroke-width:0.44767687;stroke-linecap:round;stroke-linejoin:round;stroke-dasharray:none;stroke-opacity:1"
       d="m 129.95627,109.15083 18.02142,0.0104 13.54479,9.78596 10.09742,-8.22251 13.7833,7.76511"
       inkscape:connector-curvature="0" />
    <path
       sodipodi:nodetypes="ccc"
       id="path5717"
       style="fill:#000ff0;fill-opacity:0;stroke:#546e7a;stroke-width:0.36198327;stroke-linecap:round;stroke-linejoin:round;stroke-dasharray:none;stroke-opacity:1"
       d="m 91.846608,116.2461 -7.15388,15.61078 10.753174,32.24049"
       inkscape:connector-curvature="0" />
    <path
       id="path5719"
       style="fill:#000ff0;fill-opacity:0;stroke:#546e7a;stroke-width:0.36198327;stroke-linecap:round;stroke-linejoin:round;stroke-dasharray:none;stroke-opacity:1"
       d="M 84.692728,131.85688 69.262171,178.57734"
       inkscape:connector-curvature="0" />
    <path
       id="path5721"
       style="fill:#000ff0;fill-opacity:0;stroke:#546e7a;stroke-width:0.36198327;stroke-linecap:round;stroke-linejoin:round;stroke-dasharray:none;stroke-opacity:1"
       d="m 161.57626,118.9611 -30.06852,26.83497"
       inkscape:connector-curvature="0" />
    <path
       id="path5723"
       style="fill:#000ff0;fill-opacity:0;stroke:#546e7a;stroke-width:0.36157051;stroke-linecap:round;stroke-linejoin:round;stroke-dasharray:none;stroke-opacity:1"
       d="m 153.55022,126.1462 13.87904,47.40416"
       inkscape:connector-curvature="0" />
    <path
       id="path5725"
       style="fill:#000ff0;fill-opacity:0;stroke:#546e7a;stroke-width:0.72387129;stroke-linecap:round;stroke-linejoin:round;stroke-dasharray:none;stroke-opacity:1"
       d="m 34.911647,206.3322 -3.799644,-1.13364"
       inkscape:connector-curvature="0" />
    <path
       id="path5727"
       style="fill:#000ff0;fill-opacity:0;stroke:#546e7a;stroke-width:0.72387129;stroke-linecap:round;stroke-linejoin:round;stroke-dasharray:none;stroke-opacity:1"
       d="m 228.65073,202.29917 3.27144,-2.26326"
       inkscape:connector-curvature="0" />
    <path
       sodipodi:nodetypes="ccccccc"
       id="path5729"
       style="fill:#546e7a;fill-opacity:1;fill-rule:evenodd;stroke:#546e7a;stroke-width:0.17999151;stroke-linecap:butt;stroke-linejoin:miter;stroke-dasharray:none;stroke-opacity:1"
       d="M 67.494545,62.979188 101.5501,97.650635 91.846608,116.2461 72.871521,107.06384 55.169491,116.84557 62.016773,86.735498 Z"
       inkscape:connector-curvature="0" />
    <path
       id="path5731"
       style="fill:#546e7a;fill-opacity:1;fill-rule:evenodd;stroke:#546e7a;stroke-width:0.17999151;stroke-linecap:butt;stroke-linejoin:miter;stroke-dasharray:none;stroke-opacity:1"
       d="M 159.75474,68.555089 130.10425,109.06383 148,109 l 13.4704,9.78786 10.1495,-8.06316 13.69765,7.57354 z"
       inkscape:connector-curvature="0" />
    <path
       sodipodi:nodetypes="ccccccccccc"
       inkscape:connector-curvature="0"
       id="path5733"
       d="m 31.112003,205.19856 10.370006,4.29821 29.984602,-129.736502 50.882559,49.649442 35.04949,-47.016039 65.4593,123.796299 9.03331,-6.23043 -71.6315,-139.44571 -38.20361,52.1971 -56.925509,-58.238873 z"
       style="fill:#546e7a;fill-opacity:1;stroke:#546e7a;stroke-width:0.59393835;stroke-linecap:butt;stroke-linejoin:miter;stroke-miterlimit:4;stroke-dasharray:none;stroke-opacity:1" />
  </g>
  <g
     inkscape:groupmode="layer"
     id="layer3"
     inkscape:label="M"
     style="display:inline">
    <g
       transform="matrix(0.6017388,0,0,0.58623901,-86.158995,-107.6449)"
       id="g30806">
      <path
         sodipodi:nodetypes="ccc"
         id="path12"
         style="fill:none;stroke:#ffffff;stroke-width:1.21876502;stroke-linecap:round;stroke-linejoin:round;stroke-dasharray:none"
         d="M 319.13881,429.51379 405.20196,313.78336 518.0693,523.38401"
         inkscape:connector-curvature="0" />
      <path
         inkscape:connector-curvature="0"
         id="path14"
         style="fill:#ffffff;fill-opacity:0;fill-rule:evenodd;stroke:#ffffff;stroke-width:1.21876502;stroke-linecap:round;stroke-linejoin:round;stroke-dasharray:none"
         d="m 341.03693,370.76316 63.4887,-89.03723 119.04085,237.86494" />
      <path
         id="path16"
         style="fill:none;stroke:#ffffff;stroke-width:1.21876502;stroke-linecap:round;stroke-linejoin:round;stroke-dasharray:none"
         d="m 196.28128,530.36675 53.82346,-244.83746 91.65255,95.99052"
         inkscape:connector-curvature="0" />
      <path
         id="path18"
         style="fill:none;stroke:#ffffff;stroke-width:1.21876502;stroke-linecap:round;stroke-linejoin:round;stroke-dasharray:none"
         d="m 189.89228,528.36461 56.54296,-256.94467 94.60169,99.34322"
         inkscape:connector-curvature="0" />
      <path
         sodipodi:nodetypes="cccc"
         id="path20"
         style="fill:#102a83;fill-opacity:0.00285716;fill-rule:evenodd;stroke:#ffffff;stroke-width:0.75155127;stroke-linecap:round;stroke-linejoin:round;stroke-dasharray:none"
         d="m 229.91275,378.39749 29.68829,-17.06853 31.23213,15.46445 16.31752,-31.35179"
         inkscape:connector-curvature="0" />
      <path
         id="path22"
         style="fill:none;stroke:#ffffff;stroke-width:0.75374299;stroke-linecap:round;stroke-linejoin:round;stroke-dasharray:none"
         d="m 354.16574,364.69038 29.9489,0.0178 22.50943,16.69277 16.7804,-14.02586 22.90578,13.24564"
         inkscape:connector-curvature="0" />
      <path
         sodipodi:nodetypes="ccc"
         id="path24"
         style="fill:none;stroke:#ececed;stroke-width:0.60946268;stroke-linecap:round;stroke-linejoin:round;stroke-dasharray:none"
         d="m 290.83317,376.79341 -11.88868,26.6287 17.87017,54.99547"
         inkscape:connector-curvature="0" />
      <path
         id="path26"
         style="fill:none;stroke:#ffffff;stroke-width:0.60946268;stroke-linecap:round;stroke-linejoin:round;stroke-dasharray:none"
         d="m 278.94449,403.42211 -25.64328,79.69524"
         inkscape:connector-curvature="0" />
      <path
         id="path28"
         style="fill:none;stroke:#ffffff;stroke-width:0.60946268;stroke-linecap:round;stroke-linejoin:round;stroke-dasharray:none"
         d="m 406.71343,381.42464 -49.96939,45.77479"
         inkscape:connector-curvature="0" />
      <path
         id="path30"
         style="fill:none;stroke:#ffffff;stroke-width:0.60876775;stroke-linecap:round;stroke-linejoin:round;stroke-dasharray:none"
         d="m 393.37535,393.68089 23.06489,80.86149"
         inkscape:connector-curvature="0" />
      <path
         id="path32"
         style="fill:none;stroke:#ffffff;stroke-width:1.21876502;stroke-linecap:round;stroke-linejoin:round;stroke-dasharray:none"
         d="m 196.21577,530.46129 -6.31444,-1.93376"
         inkscape:connector-curvature="0" />
      <path
         id="path34"
         style="fill:none;stroke:#ffffff;stroke-width:1.21876502;stroke-linecap:round;stroke-linejoin:round;stroke-dasharray:none"
         d="m 518.18119,523.58179 5.43664,-3.86065"
         inkscape:connector-curvature="0" />
      <path
         sodipodi:nodetypes="ccccccc"
         id="path40"
         style="fill:#eeeeee;fill-opacity:1;fill-rule:evenodd;stroke:#eeeeee;stroke-width:0.30304748;stroke-linecap:butt;stroke-linejoin:miter;stroke-dasharray:none;stroke-opacity:1"
         d="m 250.36368,285.93131 56.59525,59.14217 -16.12576,31.71993 -31.53376,-15.66299 -29.41813,16.68556 11.37916,-51.36142 z"
         inkscape:connector-curvature="0" />
      <path
         id="path42"
         style="fill:#eeeeee;fill-opacity:1;fill-rule:evenodd;stroke:#eeeeee;stroke-width:0.30304748;stroke-linecap:butt;stroke-linejoin:miter;stroke-dasharray:none;stroke-opacity:1"
         d="m 403.68634,295.44262 -49.27469,69.09936 29.74007,-0.10888 22.38579,16.69602 16.86696,-13.75405 22.76345,12.91887 z"
         inkscape:connector-curvature="0" />
      <path
         sodipodi:nodetypes="ccccccccccc"
         inkscape:connector-curvature="0"
         id="path7349"
         d="m 189.90133,528.52753 17.2334,7.33184 49.82993,-221.30308 84.55921,84.69147 58.24702,-80.19944 108.78357,211.17036 15.01202,-10.62781 -119.04085,-237.86494 -63.4887,89.03723 -94.60169,-99.34322 z"
         style="fill:#eeeeee;fill-opacity:1;stroke:#eeeeee;stroke-width:1;stroke-linecap:butt;stroke-linejoin:miter;stroke-miterlimit:4;stroke-dasharray:none;stroke-opacity:1" />
    </g>
  </g>
</svg>
